arkanoid\game\GameController$1.class
arkanoid\game\GameView.class
arkanoid\SoundDriver$Listener.class
arkanoid\menuwindow\Controller.class
gameobjects\Player.class
arkanoid\menuwindow\Controller$1.class
gameobjects\Ball.class
gameobjects\GameObject.class
arkanoid\game\settings\SettingsView.class
gameobjects\Block.class
arkanoid\game\GameController$2.class
arkanoid\Arkanoid.class
arkanoid\game\settings\SettingsController.class
arkanoid\SoundDriver.class
arkanoid\game\GameThread.class
arkanoid\game\GameController.class
arkanoid\menuwindow\View.class
